%YAML 1.1
%TAG !u! tag:unity3d.com,2011:
--- !u!29 &1
SceneSettings:
  m_ObjectHideFlags: 0
  m_PVSData: 
  m_PVSObjectsArray: []
  m_PVSPortalsArray: []
  m_OcclusionBakeSettings:
    smallestOccluder: 5
    smallestHole: .25
    backfaceThreshold: 100
--- !u!104 &2
RenderSettings:
  m_ObjectHideFlags: 0
  serializedVersion: 6
  m_Fog: 0
  m_FogColor: {r: .5, g: .5, b: .5, a: 1}
  m_FogMode: 3
  m_FogDensity: .00999999978
  m_LinearFogStart: 0
  m_LinearFogEnd: 300
  m_AmbientSkyColor: {r: .211999997, g: .226999998, b: .259000003, a: 1}
  m_AmbientEquatorColor: {r: .114, g: .125, b: .133000001, a: 1}
  m_AmbientGroundColor: {r: .0469999984, g: .0430000015, b: .0350000001, a: 1}
  m_AmbientIntensity: 1
  m_AmbientMode: 3
  m_SkyboxMaterial: {fileID: 0}
  m_HaloStrength: .5
  m_FlareStrength: 1
  m_FlareFadeSpeed: 3
  m_HaloTexture: {fileID: 0}
  m_SpotCookie: {fileID: 10001, guid: 0000000000000000e000000000000000, type: 0}
  m_DefaultReflectionMode: 0
  m_DefaultReflectionResolution: 128
  m_ReflectionBounces: 1
  m_ReflectionIntensity: 1
  m_CustomReflection: {fileID: 0}
  m_Sun: {fileID: 0}
--- !u!157 &4
LightmapSettings:
  m_ObjectHideFlags: 0
  serializedVersion: 5
  m_GIWorkflowMode: 1
  m_LightmapsMode: 1
  m_GISettings:
    serializedVersion: 2
    m_BounceScale: 1
    m_IndirectOutputScale: 1
    m_AlbedoBoost: 1
    m_TemporalCoherenceThreshold: 1
    m_EnvironmentLightingMode: 0
    m_EnableBakedLightmaps: 0
    m_EnableRealtimeLightmaps: 0
  m_LightmapEditorSettings:
    serializedVersion: 3
    m_Resolution: 2
    m_BakeResolution: 40
    m_TextureWidth: 1024
    m_TextureHeight: 1024
    m_AOMaxDistance: 1
    m_Padding: 2
    m_CompAOExponent: 0
    m_LightmapParameters: {fileID: 0}
    m_TextureCompression: 1
    m_FinalGather: 0
    m_FinalGatherRayCount: 1024
    m_ReflectionCompression: 2
  m_LightmapSnapshot: {fileID: 0}
  m_RuntimeCPUUsage: 25
--- !u!196 &5
NavMeshSettings:
  serializedVersion: 2
  m_ObjectHideFlags: 0
  m_BuildSettings:
    serializedVersion: 2
    agentRadius: .5
    agentHeight: 2
    agentSlope: 45
    agentClimb: .400000006
    ledgeDropHeight: 0
    maxJumpAcrossDistance: 0
    accuratePlacement: 0
    minRegionArea: 2
    cellSize: .166666672
    manualCellSize: 0
  m_NavMeshData: {fileID: 0}
--- !u!1001 &358278932
Prefab:
  m_ObjectHideFlags: 0
  serializedVersion: 2
  m_Modification:
    m_TransformParent: {fileID: 0}
    m_Modifications:
    - target: {fileID: 429256, guid: 106b6fb29e924c64a84f087e4e2b1b37, type: 2}
      propertyPath: m_LocalPosition.x
      value: -3.89129543
      objectReference: {fileID: 0}
    - target: {fileID: 429256, guid: 106b6fb29e924c64a84f087e4e2b1b37, type: 2}
      propertyPath: m_LocalPosition.y
      value: 1.74342179
      objectReference: {fileID: 0}
    - target: {fileID: 429256, guid: 106b6fb29e924c64a84f087e4e2b1b37, type: 2}
      propertyPath: m_LocalPosition.z
      value: 0
      objectReference: {fileID: 0}
    - target: {fileID: 429256, guid: 106b6fb29e924c64a84f087e4e2b1b37, type: 2}
      propertyPath: m_LocalRotation.x
      value: 0
      objectReference: {fileID: 0}
    - target: {fileID: 429256, guid: 106b6fb29e924c64a84f087e4e2b1b37, type: 2}
      propertyPath: m_LocalRotation.y
      value: 0
      objectReference: {fileID: 0}
    - target: {fileID: 429256, guid: 106b6fb29e924c64a84f087e4e2b1b37, type: 2}
      propertyPath: m_LocalRotation.z
      value: 0
      objectReference: {fileID: 0}
    - target: {fileID: 429256, guid: 106b6fb29e924c64a84f087e4e2b1b37, type: 2}
      propertyPath: m_LocalRotation.w
      value: 1
      objectReference: {fileID: 0}
    - target: {fileID: 429256, guid: 106b6fb29e924c64a84f087e4e2b1b37, type: 2}
      propertyPath: m_RootOrder
      value: 4
      objectReference: {fileID: 0}
    m_RemovedComponents: []
  m_ParentPrefab: {fileID: 100100000, guid: 106b6fb29e924c64a84f087e4e2b1b37, type: 2}
  m_IsPrefabParent: 0
--- !u!1001 &530166612
Prefab:
  m_ObjectHideFlags: 0
  serializedVersion: 2
  m_Modification:
    m_TransformParent: {fileID: 0}
    m_Modifications:
    - target: {fileID: 421954, guid: ba2fc8a1ac9e34e4489cad592d65a352, type: 2}
      propertyPath: m_LocalPosition.x
      value: 2.88000011
      objectReference: {fileID: 0}
    - target: {fileID: 421954, guid: ba2fc8a1ac9e34e4489cad592d65a352, type: 2}
      propertyPath: m_LocalPosition.y
      value: 2.4000001
      objectReference: {fileID: 0}
    - target: {fileID: 421954, guid: ba2fc8a1ac9e34e4489cad592d65a352, type: 2}
      propertyPath: m_LocalPosition.z
      value: 0
      objectReference: {fileID: 0}
    - target: {fileID: 421954, guid: ba2fc8a1ac9e34e4489cad592d65a352, type: 2}
      propertyPath: m_LocalRotation.x
      value: 0
      objectReference: {fileID: 0}
    - target: {fileID: 421954, guid: ba2fc8a1ac9e34e4489cad592d65a352, type: 2}
      propertyPath: m_LocalRotation.y
      value: 0
      objectReference: {fileID: 0}
    - target: {fileID: 421954, guid: ba2fc8a1ac9e34e4489cad592d65a352, type: 2}
      propertyPath: m_LocalRotation.z
      value: 0
      objectReference: {fileID: 0}
    - target: {fileID: 421954, guid: ba2fc8a1ac9e34e4489cad592d65a352, type: 2}
      propertyPath: m_LocalRotation.w
      value: 1
      objectReference: {fileID: 0}
    - target: {fileID: 421954, guid: ba2fc8a1ac9e34e4489cad592d65a352, type: 2}
      propertyPath: m_RootOrder
      value: 7
      objectReference: {fileID: 0}
    - target: {fileID: 151658, guid: ba2fc8a1ac9e34e4489cad592d65a352, type: 2}
      propertyPath: m_Name
      value: Steep (4)
      objectReference: {fileID: 0}
    m_RemovedComponents: []
  m_ParentPrefab: {fileID: 100100000, guid: ba2fc8a1ac9e34e4489cad592d65a352, type: 2}
  m_IsPrefabParent: 0
--- !u!1001 &674972634
Prefab:
  m_ObjectHideFlags: 0
  serializedVersion: 2
  m_Modification:
    m_TransformParent: {fileID: 0}
    m_Modifications:
    - target: {fileID: 421954, guid: ba2fc8a1ac9e34e4489cad592d65a352, type: 2}
      propertyPath: m_LocalPosition.x
      value: 3.11999989
      objectReference: {fileID: 0}
    - target: {fileID: 421954, guid: ba2fc8a1ac9e34e4489cad592d65a352, type: 2}
      propertyPath: m_LocalPosition.y
      value: 2.4000001
      objectReference: {fileID: 0}
    - target: {fileID: 421954, guid: ba2fc8a1ac9e34e4489cad592d65a352, type: 2}
      propertyPath: m_LocalPosition.z
      value: 0
      objectReference: {fileID: 0}
    - target: {fileID: 421954, guid: ba2fc8a1ac9e34e4489cad592d65a352, type: 2}
      propertyPath: m_LocalRotation.x
      value: 0
      objectReference: {fileID: 0}
    - target: {fileID: 421954, guid: ba2fc8a1ac9e34e4489cad592d65a352, type: 2}
      propertyPath: m_LocalRotation.y
      value: 0
      objectReference: {fileID: 0}
    - target: {fileID: 421954, guid: ba2fc8a1ac9e34e4489cad592d65a352, type: 2}
      propertyPath: m_LocalRotation.z
      value: 0
      objectReference: {fileID: 0}
    - target: {fileID: 421954, guid: ba2fc8a1ac9e34e4489cad592d65a352, type: 2}
      propertyPath: m_LocalRotation.w
      value: 1
      objectReference: {fileID: 0}
    - target: {fileID: 421954, guid: ba2fc8a1ac9e34e4489cad592d65a352, type: 2}
      propertyPath: m_RootOrder
      value: 6
      objectReference: {fileID: 0}
    - target: {fileID: 151658, guid: ba2fc8a1ac9e34e4489cad592d65a352, type: 2}
      propertyPath: m_Name
      value: Steep (3)
      objectReference: {fileID: 0}
    m_RemovedComponents: []
  m_ParentPrefab: {fileID: 100100000, guid: ba2fc8a1ac9e34e4489cad592d65a352, type: 2}
  m_IsPrefabParent: 0
--- !u!1001 &825919424
Prefab:
  m_ObjectHideFlags: 0
  serializedVersion: 2
  m_Modification:
    m_TransformParent: {fileID: 0}
    m_Modifications:
    - target: {fileID: 421954, guid: ba2fc8a1ac9e34e4489cad592d65a352, type: 2}
      propertyPath: m_LocalPosition.x
      value: 3.83999991
      objectReference: {fileID: 0}
    - target: {fileID: 421954, guid: ba2fc8a1ac9e34e4489cad592d65a352, type: 2}
      propertyPath: m_LocalPosition.y
      value: 2.4000001
      objectReference: {fileID: 0}
    - target: {fileID: 421954, guid: ba2fc8a1ac9e34e4489cad592d65a352, type: 2}
      propertyPath: m_LocalPosition.z
      value: 0
      objectReference: {fileID: 0}
    - target: {fileID: 421954, guid: ba2fc8a1ac9e34e4489cad592d65a352, type: 2}
      propertyPath: m_LocalRotation.x
      value: 0
      objectReference: {fileID: 0}
    - target: {fileID: 421954, guid: ba2fc8a1ac9e34e4489cad592d65a352, type: 2}
      propertyPath: m_LocalRotation.y
      value: 0
      objectReference: {fileID: 0}
    - target: {fileID: 421954, guid: ba2fc8a1ac9e34e4489cad592d65a352, type: 2}
      propertyPath: m_LocalRotation.z
      value: 0
      objectReference: {fileID: 0}
    - target: {fileID: 421954, guid: ba2fc8a1ac9e34e4489cad592d65a352, type: 2}
      propertyPath: m_LocalRotation.w
      value: 1
      objectReference: {fileID: 0}
    - target: {fileID: 421954, guid: ba2fc8a1ac9e34e4489cad592d65a352, type: 2}
      propertyPath: m_RootOrder
      value: 2
      objectReference: {fileID: 0}
    - target: {fileID: 151658, guid: ba2fc8a1ac9e34e4489cad592d65a352, type: 2}
      propertyPath: m_Name
      value: Steep (1)
      objectReference: {fileID: 0}
    m_RemovedComponents: []
  m_ParentPrefab: {fileID: 100100000, guid: ba2fc8a1ac9e34e4489cad592d65a352, type: 2}
  m_IsPrefabParent: 0
--- !u!1001 &1391359809
Prefab:
  m_ObjectHideFlags: 0
  serializedVersion: 2
  m_Modification:
    m_TransformParent: {fileID: 0}
    m_Modifications:
    - target: {fileID: 479974, guid: 5025d1fa5d2b30a49b9e2cf4bee69377, type: 2}
      propertyPath: m_LocalPosition.x
      value: 0
      objectReference: {fileID: 0}
    - target: {fileID: 479974, guid: 5025d1fa5d2b30a49b9e2cf4bee69377, type: 2}
      propertyPath: m_LocalPosition.y
      value: 0
      objectReference: {fileID: 0}
    - target: {fileID: 479974, guid: 5025d1fa5d2b30a49b9e2cf4bee69377, type: 2}
      propertyPath: m_LocalPosition.z
      value: 0
      objectReference: {fileID: 0}
    - target: {fileID: 479974, guid: 5025d1fa5d2b30a49b9e2cf4bee69377, type: 2}
      propertyPath: m_LocalRotation.x
      value: 0
      objectReference: {fileID: 0}
    - target: {fileID: 479974, guid: 5025d1fa5d2b30a49b9e2cf4bee69377, type: 2}
      propertyPath: m_LocalRotation.y
      value: 0
      objectReference: {fileID: 0}
    - target: {fileID: 479974, guid: 5025d1fa5d2b30a49b9e2cf4bee69377, type: 2}
      propertyPath: m_LocalRotation.z
      value: 0
      objectReference: {fileID: 0}
    - target: {fileID: 479974, guid: 5025d1fa5d2b30a49b9e2cf4bee69377, type: 2}
      propertyPath: m_LocalRotation.w
      value: 1
      objectReference: {fileID: 0}
    - target: {fileID: 479974, guid: 5025d1fa5d2b30a49b9e2cf4bee69377, type: 2}
      propertyPath: m_RootOrder
      value: 2
      objectReference: {fileID: 0}
    m_RemovedComponents: []
  m_ParentPrefab: {fileID: 100100000, guid: 5025d1fa5d2b30a49b9e2cf4bee69377, type: 2}
  m_IsPrefabParent: 0
--- !u!1001 &1523331315
Prefab:
  m_ObjectHideFlags: 0
  serializedVersion: 2
  m_Modification:
    m_TransformParent: {fileID: 0}
    m_Modifications:
    - target: {fileID: 421954, guid: ba2fc8a1ac9e34e4489cad592d65a352, type: 2}
      propertyPath: m_LocalPosition.x
      value: 2.6400001
      objectReference: {fileID: 0}
    - target: {fileID: 421954, guid: ba2fc8a1ac9e34e4489cad592d65a352, type: 2}
      propertyPath: m_LocalPosition.y
      value: 2.4000001
      objectReference: {fileID: 0}
    - target: {fileID: 421954, guid: ba2fc8a1ac9e34e4489cad592d65a352, type: 2}
      propertyPath: m_LocalPosition.z
      value: 0
      objectReference: {fileID: 0}
    - target: {fileID: 421954, guid: ba2fc8a1ac9e34e4489cad592d65a352, type: 2}
      propertyPath: m_LocalRotation.x
      value: 0
      objectReference: {fileID: 0}
    - target: {fileID: 421954, guid: ba2fc8a1ac9e34e4489cad592d65a352, type: 2}
      propertyPath: m_LocalRotation.y
      value: 0
      objectReference: {fileID: 0}
    - target: {fileID: 421954, guid: ba2fc8a1ac9e34e4489cad592d65a352, type: 2}
      propertyPath: m_LocalRotation.z
      value: 0
      objectReference: {fileID: 0}
    - target: {fileID: 421954, guid: ba2fc8a1ac9e34e4489cad592d65a352, type: 2}
      propertyPath: m_LocalRotation.w
      value: 1
      objectReference: {fileID: 0}
    - target: {fileID: 421954, guid: ba2fc8a1ac9e34e4489cad592d65a352, type: 2}
      propertyPath: m_RootOrder
      value: 8
      objectReference: {fileID: 0}
    - target: {fileID: 151658, guid: ba2fc8a1ac9e34e4489cad592d65a352, type: 2}
      propertyPath: m_Name
      value: Steep (5)
      objectReference: {fileID: 0}
    m_RemovedComponents: []
  m_ParentPrefab: {fileID: 100100000, guid: ba2fc8a1ac9e34e4489cad592d65a352, type: 2}
  m_IsPrefabParent: 0
--- !u!1001 &1541537923
Prefab:
  m_ObjectHideFlags: 0
  serializedVersion: 2
  m_Modification:
    m_TransformParent: {fileID: 0}
    m_Modifications:
    - target: {fileID: 421954, guid: ba2fc8a1ac9e34e4489cad592d65a352, type: 2}
      propertyPath: m_LocalPosition.x
      value: 3.5999999
      objectReference: {fileID: 0}
    - target: {fileID: 421954, guid: ba2fc8a1ac9e34e4489cad592d65a352, type: 2}
      propertyPath: m_LocalPosition.y
      value: 2.4000001
      objectReference: {fileID: 0}
    - target: {fileID: 421954, guid: ba2fc8a1ac9e34e4489cad592d65a352, type: 2}
      propertyPath: m_LocalPosition.z
      value: 0
      objectReference: {fileID: 0}
    - target: {fileID: 421954, guid: ba2fc8a1ac9e34e4489cad592d65a352, type: 2}
      propertyPath: m_LocalRotation.x
      value: 0
      objectReference: {fileID: 0}
    - target: {fileID: 421954, guid: ba2fc8a1ac9e34e4489cad592d65a352, type: 2}
      propertyPath: m_LocalRotation.y
      value: 0
      objectReference: {fileID: 0}
    - target: {fileID: 421954, guid: ba2fc8a1ac9e34e4489cad592d65a352, type: 2}
      propertyPath: m_LocalRotation.z
      value: 0
      objectReference: {fileID: 0}
    - target: {fileID: 421954, guid: ba2fc8a1ac9e34e4489cad592d65a352, type: 2}
      propertyPath: m_LocalRotation.w
      value: 1
      objectReference: {fileID: 0}
    - target: {fileID: 421954, guid: ba2fc8a1ac9e34e4489cad592d65a352, type: 2}
      propertyPath: m_RootOrder
      value: 5
      objectReference: {fileID: 0}
    m_RemovedComponents: []
  m_ParentPrefab: {fileID: 100100000, guid: ba2fc8a1ac9e34e4489cad592d65a352, type: 2}
  m_IsPrefabParent: 0
--- !u!1001 &1571096964
Prefab:
  m_ObjectHideFlags: 0
  serializedVersion: 2
  m_Modification:
    m_TransformParent: {fileID: 0}
    m_Modifications:
    - target: {fileID: 421954, guid: ba2fc8a1ac9e34e4489cad592d65a352, type: 2}
      propertyPath: m_LocalPosition.x
      value: 3.3599999
      objectReference: {fileID: 0}
    - target: {fileID: 421954, guid: ba2fc8a1ac9e34e4489cad592d65a352, type: 2}
      propertyPath: m_LocalPosition.y
      value: 2.4000001
      objectReference: {fileID: 0}
    - target: {fileID: 421954, guid: ba2fc8a1ac9e34e4489cad592d65a352, type: 2}
      propertyPath: m_LocalPosition.z
      value: 0
      objectReference: {fileID: 0}
    - target: {fileID: 421954, guid: ba2fc8a1ac9e34e4489cad592d65a352, type: 2}
      propertyPath: m_LocalRotation.x
      value: 0
      objectReference: {fileID: 0}
    - target: {fileID: 421954, guid: ba2fc8a1ac9e34e4489cad592d65a352, type: 2}
      propertyPath: m_LocalRotation.y
      value: 0
      objectReference: {fileID: 0}
    - target: {fileID: 421954, guid: ba2fc8a1ac9e34e4489cad592d65a352, type: 2}
      propertyPath: m_LocalRotation.z
      value: 0
      objectReference: {fileID: 0}
    - target: {fileID: 421954, guid: ba2fc8a1ac9e34e4489cad592d65a352, type: 2}
      propertyPath: m_LocalRotation.w
      value: 1
      objectReference: {fileID: 0}
    - target: {fileID: 421954, guid: ba2fc8a1ac9e34e4489cad592d65a352, type: 2}
      propertyPath: m_RootOrder
      value: 3
      objectReference: {fileID: 0}
    - target: {fileID: 151658, guid: ba2fc8a1ac9e34e4489cad592d65a352, type: 2}
      propertyPath: m_Name
      value: Steep (2)
      objectReference: {fileID: 0}
    m_RemovedComponents: []
  m_ParentPrefab: {fileID: 100100000, guid: ba2fc8a1ac9e34e4489cad592d65a352, type: 2}
  m_IsPrefabParent: 0
--- !u!1001 &1816568445
Prefab:
  m_ObjectHideFlags: 0
  serializedVersion: 2
  m_Modification:
    m_TransformParent: {fileID: 0}
    m_Modifications:
    - target: {fileID: 474296, guid: 88da09611e8a8d64e9ed7d22f24a8a56, type: 2}
      propertyPath: m_LocalPosition.x
      value: 0
      objectReference: {fileID: 0}
    - target: {fileID: 474296, guid: 88da09611e8a8d64e9ed7d22f24a8a56, type: 2}
      propertyPath: m_LocalPosition.y
      value: 0
      objectReference: {fileID: 0}
    - target: {fileID: 474296, guid: 88da09611e8a8d64e9ed7d22f24a8a56, type: 2}
      propertyPath: m_LocalPosition.z
      value: 0
      objectReference: {fileID: 0}
    - target: {fileID: 474296, guid: 88da09611e8a8d64e9ed7d22f24a8a56, type: 2}
      propertyPath: m_LocalRotation.x
      value: 0
      objectReference: {fileID: 0}
    - target: {fileID: 474296, guid: 88da09611e8a8d64e9ed7d22f24a8a56, type: 2}
      propertyPath: m_LocalRotation.y
      value: 0
      objectReference: {fileID: 0}
    - target: {fileID: 474296, guid: 88da09611e8a8d64e9ed7d22f24a8a56, type: 2}
      propertyPath: m_LocalRotation.z
      value: 0
      objectReference: {fileID: 0}
    - target: {fileID: 474296, guid: 88da09611e8a8d64e9ed7d22f24a8a56, type: 2}
      propertyPath: m_LocalRotation.w
      value: 1
      objectReference: {fileID: 0}
    - target: {fileID: 474296, guid: 88da09611e8a8d64e9ed7d22f24a8a56, type: 2}
      propertyPath: m_RootOrder
      value: 0
      objectReference: {fileID: 0}
    m_RemovedComponents: []
  m_ParentPrefab: {fileID: 100100000, guid: 88da09611e8a8d64e9ed7d22f24a8a56, type: 2}
  m_IsPrefabParent: 0
